<?xml version="1.0" encoding="utf-8"?>
<!-- Generator: Adobe Illustrator 16.0.0, SVG Export Plug-In . SVG Version: 6.00 Build 0)  -->
<!DOCTYPE svg PUBLIC "-//W3C//DTD SVG 1.1//EN" "http://www.w3.org/Graphics/SVG/1.1/DTD/svg11.dtd">
<svg version="1.1" id="Layer_1" xmlns="http://www.w3.org/2000/svg" xmlns:xlink="http://www.w3.org/1999/xlink" x="0px" y="0px"
	 width="297.713px" height="248.132px" viewBox="0 0 297.713 248.132" enable-background="new 0 0 297.713 248.132"
	 xml:space="preserve">
<path fill="#AFC5C3" d="M260.041,65.76c-2.48-0.153-4.967-0.539-7.398-1.074c-1.154-0.255-2.609-0.82-3.197-1.72
	c-4.104-6.293-3.848-8.938,1.029-14.581c0.543-0.628,1.08-1.263,1.609-1.904c1.771-2.143,3.875-3.894,1.414-7.243
	c-2.271-3.101-4.414-3.982-7.879-2.295c-2.23,1.083-4.646,1.846-7.049,2.494c-1.146,0.308-2.709,0.458-3.652-0.079
	c-6.676-3.798-7.59-6.129-5.822-13.791c0.188-0.809,0.396-1.618,0.531-2.436c0.428-2.527,1.549-4.895-2.082-6.592
	c-3.414-1.594-5.756-1.656-8.115,1.429c-1.607,2.104-3.484,4.023-5.381,5.878c-0.73,0.712-1.865,1.465-2.799,1.443
	c-7.744-0.176-9.951-2.076-11.881-9.851c-0.16-0.647-0.281-1.306-0.49-1.937c-0.803-2.43-0.887-5.179-4.84-5.048
	c-3.627,0.121-6.016,0.867-6.65,4.866c-0.418,2.612-1.199,5.197-2.1,7.691c-0.387,1.08-1.287,2.329-2.281,2.783
	c-7.207,3.282-8.98,2.856-14.287-2.941c-0.674-0.735-1.373-1.449-2.051-2.18c-1.723-1.854-3.232-3.727-6.27-1.809
	c-2.697,1.7-5.041,3.108-3.648,6.928c0.732,2.011,0.803,4.26,1.48,6.3c1.023,3.042,0.039,4.867-2.127,7.314
	c-3.836,4.334-7.521,5.136-12.311,2.203c-0.693-0.427-1.569-0.545-2.343-0.848c-2.727-1.065-5.005-1.812-7.203,1.521
	c-2.044,3.1-1.865,5.29,0.508,7.802c1.823,1.932,3.607,3.926,5.186,6.058c0.678,0.922,1.286,2.36,1.079,3.396
	c-1.616,8.098-2.727,9.057-10.951,10.22c-0.824,0.116-1.643,0.278-2.469,0.36c-2.808,0.285-4.91,0.846-5.288,4.524
	c-0.371,3.591,0.472,5.649,3.943,6.739c2.374,0.746,4.812,1.567,6.89,2.875c1.416,0.89,2.672,2.521,3.294,4.099
	c2.363,5.98,0.602,10.435-5.45,13.007c-0.601,0.255-1.102,0.744-1.648,1.12c-2.286,1.569-3.981,2.995-2.57,6.446
	c1.368,3.347,3.054,4.784,6.63,4.111c2.115-0.397,4.339-0.237,6.435-0.695c2.979-0.654,4.498,0.544,6.525,2.793
	c4.02,4.459,4.278,8.359,0.722,13.043c-1.367,1.802-2.028,4.139-2.946,6.099c5.667,6.39,5.673,6.403,12.292,2.265
	c1.693-1.053,3.238-2.377,5.008-3.27c1-0.505,2.492-0.836,3.465-0.465c8.52,3.266,8.498,3.32,8.635,12.229
	c0.01,0.666,0.025,1.332,0.025,1.998c0.014,2.709-0.059,5.055,3.627,5.984c3.754,0.949,5.953,0.175,7.539-3.277
	c1.107-2.412,2.453-4.729,3.859-6.986c0.539-0.875,1.432-1.909,2.338-2.114c7.383-1.651,10.209-0.286,13.725,6.337
	c0.316,0.592,0.625,1.18,0.924,1.775c1.393,2.738,2.607,5.064,6.719,4.004c3.719-0.963,4.77-2.912,4.643-6.312
	c-0.076-1.991,0.516-4.065,0.129-5.971c-1.311-6.488,4.701-6.313,7.838-8.418c1.207-0.81,4.115,0.229,5.895,1.126
	c2.945,1.486,5.602,3.541,8.57,5.48c6.871-5.121,6.883-5.123,3.562-12.243c-0.777-1.655-1.75-3.225-2.432-4.915
	c-0.396-0.98-0.816-2.27-0.496-3.154c2.338-6.457,5.865-8.491,12.936-7.731c0.66,0.07,1.322,0.175,1.986,0.201
	c2.83,0.125,5.643,1.279,7.141-3.033c1.336-3.838,0.387-5.87-2.689-7.785c-2.113-1.313-4.158-2.781-6.057-4.386
	c-0.893-0.75-1.895-1.961-1.951-3.007c-0.438-8.143,0.576-9.584,8.225-12.656c0.617-0.25,1.23-0.505,1.85-0.75
	c2.621-1.037,5.08-1.653,4.523-5.784C265.425,67.43,263.72,65.986,260.041,65.76z"/>
<g>
	<g>
		<path fill="#060E9F" d="M217.113,60.421c0-8.329-10.348-15.118-23.109-15.118c-12.768,0-23.111,6.789-23.111,15.118
			c0,0.215-0.004,0.808-0.004,0.883c0,8.836,9.045,15.99,23.111,15.99c14.154,0,23.113-7.155,23.113-15.988
			C217.113,60.999,217.113,60.82,217.113,60.421z"/>
		<ellipse fill="#009EE2" cx="194.007" cy="60.413" rx="22.223" ry="14.216"/>
		<g>
			<path fill="#FFFFFF" d="M186.628,55.928c-0.014,0.022-0.232,0.252-0.09,0.437c0.352,0.449,1.432,0.706,2.527,0.459
				c0.652-0.147,1.488-0.812,2.299-1.454c0.877-0.697,1.746-1.395,2.625-1.672c0.926-0.294,1.518-0.169,1.912-0.05
				c0.43,0.128,0.936,0.413,1.744,1.017c1.52,1.143,7.631,6.479,8.689,7.402c0.852-0.384,4.633-2.014,9.77-3.146
				c-0.445-2.737-2.111-5.245-4.639-7.297c-3.523,1.48-7.826,2.252-12.037,0.196c-0.02-0.008-2.297-1.086-4.547-1.035
				c-3.338,0.078-4.785,1.524-6.314,3.053L186.628,55.928z"/>
			<path fill="#FFFFFF" d="M206.087,62.647c-0.07-0.062-7.189-6.292-8.801-7.503c-0.934-0.701-1.451-0.879-1.998-0.948
				c-0.283-0.037-0.676,0.016-0.949,0.092c-0.75,0.203-1.73,0.859-2.605,1.55c-0.9,0.719-1.752,1.393-2.539,1.571
				c-1.008,0.227-2.236-0.041-2.801-0.421c-0.227-0.153-0.387-0.33-0.463-0.509c-0.209-0.481,0.174-0.866,0.236-0.93l1.965-2.125
				c0.227-0.229,0.459-0.455,0.693-0.681c-0.635,0.083-1.219,0.245-1.789,0.404c-0.711,0.199-1.396,0.391-2.09,0.39
				c-0.289,0-1.838-0.254-2.131-0.333c-1.779-0.488-3.338-0.961-5.668-2.049c-2.795,2.078-4.662,4.678-5.199,7.54
				c0.4,0.104,1.045,0.298,1.318,0.358c6.316,1.405,8.287,2.853,8.646,3.155c0.383-0.43,0.943-0.702,1.562-0.702
				c0.701,0,1.33,0.351,1.713,0.895c0.363-0.287,0.861-0.53,1.508-0.529c0.293,0,0.596,0.054,0.904,0.158
				c0.711,0.245,1.078,0.719,1.27,1.148c0.24-0.107,0.535-0.187,0.883-0.185c0.338,0,0.693,0.077,1.049,0.231
				c1.166,0.501,1.346,1.645,1.242,2.508c0.082-0.01,0.166-0.014,0.252-0.014c1.381,0,2.504,1.122,2.504,2.504
				c0,0.429-0.107,0.831-0.299,1.184c0.375,0.21,1.334,0.688,2.176,0.581c0.672-0.084,0.926-0.313,1.02-0.443
				c0.061-0.089,0.129-0.193,0.066-0.267l-1.785-1.981c0,0-0.293-0.277-0.193-0.385c0.098-0.109,0.281,0.048,0.41,0.156
				c0.906,0.758,2.016,1.902,2.016,1.902c0.018,0.013,0.09,0.156,0.5,0.23c0.354,0.064,0.977,0.028,1.412-0.328
				c0.105-0.089,0.215-0.201,0.309-0.316c-0.01,0.005-0.014,0.014-0.02,0.015c0.453-0.583-0.053-1.173-0.053-1.173l-2.082-2.336
				c0,0-0.299-0.275-0.197-0.386c0.092-0.096,0.281,0.049,0.414,0.157c0.656,0.551,1.588,1.486,2.482,2.36
				c0.174,0.127,0.957,0.612,1.996-0.07c0.633-0.413,0.758-0.921,0.74-1.304c-0.043-0.508-0.441-0.87-0.441-0.87l-2.844-2.858
				c0,0-0.299-0.256-0.193-0.387c0.086-0.109,0.281,0.048,0.41,0.156c0.906,0.757,3.355,3.006,3.355,3.006
				c0.035,0.023,0.883,0.628,1.932-0.039c0.373-0.24,0.611-0.602,0.633-1.02C206.601,63.078,206.087,62.647,206.087,62.647z"/>
			<path fill="#FFFFFF" d="M192.296,66.271c-0.439-0.004-0.922,0.256-0.986,0.218c-0.035-0.022,0.027-0.2,0.068-0.302
				c0.043-0.102,0.625-1.85-0.791-2.455c-1.084-0.466-1.746,0.058-1.973,0.293c-0.062,0.061-0.088,0.059-0.096-0.021
				c-0.021-0.314-0.164-1.166-1.098-1.451c-1.336-0.411-2.193,0.524-2.412,0.86c-0.098-0.763-0.742-1.354-1.533-1.354
				c-0.854-0.001-1.549,0.692-1.549,1.55c0,0.856,0.693,1.55,1.549,1.55c0.418,0.001,0.795-0.165,1.074-0.432
				c0.01,0.01,0.014,0.022,0.008,0.054c-0.062,0.382-0.186,1.776,1.275,2.344c0.584,0.228,1.084,0.058,1.496-0.23
				c0.123-0.087,0.141-0.051,0.125,0.064c-0.057,0.359,0.014,1.126,1.09,1.562c0.816,0.333,1.303-0.007,1.619-0.3
				c0.137-0.125,0.176-0.104,0.184,0.091c0.039,1.037,0.898,1.861,1.945,1.861c1.08,0.002,1.953-0.871,1.953-1.948
				C194.25,67.145,193.375,66.282,192.296,66.271z"/>
		</g>
		<path fill="#060E9F" d="M206.363,61.901c-2.191-1.911-7.26-6.318-8.631-7.348c-0.783-0.589-1.318-0.902-1.789-1.039
			c-0.213-0.063-0.502-0.138-0.879-0.138c-0.35,0-0.725,0.063-1.117,0.187c-0.887,0.281-1.77,0.982-2.623,1.663l-0.043,0.034
			c-0.799,0.633-1.619,1.288-2.242,1.426c-0.271,0.061-0.553,0.094-0.832,0.094c-0.695-0.001-1.324-0.202-1.559-0.502
			c-0.039-0.05-0.016-0.13,0.078-0.244l0.012-0.018l1.93-2.079c1.508-1.511,2.936-2.935,6.221-3.012
			c0.055-0.002,0.109-0.004,0.166-0.004c2.045,0.002,4.086,0.918,4.316,1.025c1.916,0.933,3.896,1.408,5.885,1.412
			c2.072,0,4.213-0.514,6.461-1.549c-0.254-0.212-0.514-0.417-0.781-0.619c-1.977,0.856-3.859,1.289-5.672,1.289
			c-1.855-0.001-3.709-0.448-5.51-1.325c-0.094-0.045-2.352-1.109-4.699-1.111c-0.061,0-0.123,0-0.184,0.002
			c-2.76,0.064-4.312,1.044-5.359,1.903c-1.014,0.023-1.893,0.271-2.672,0.487c-0.695,0.194-1.297,0.361-1.883,0.361
			c-0.24,0-0.676-0.021-0.715-0.022c-0.676-0.02-4.072-0.854-6.775-1.877c-0.273,0.196-0.541,0.397-0.799,0.603
			c2.824,1.158,6.258,2.054,7.344,2.123c0.301,0.02,0.623,0.055,0.945,0.056c0.717,0,1.432-0.201,2.123-0.396
			c0.412-0.115,0.863-0.241,1.336-0.331c-0.127,0.124-0.254,0.252-0.381,0.377l-1.959,2.12c-0.154,0.156-0.49,0.569-0.27,1.082
			c0.088,0.208,0.264,0.405,0.518,0.572c0.467,0.314,1.303,0.526,2.076,0.528c0.293,0.001,0.574-0.028,0.834-0.086
			c0.818-0.184,1.684-0.872,2.596-1.596c0.725-0.578,1.758-1.313,2.553-1.528c0.219-0.059,0.49-0.098,0.709-0.098
			c0.064,0,0.129,0.002,0.184,0.012c0.525,0.065,1.031,0.245,1.93,0.922c1.609,1.208,8.73,7.434,8.797,7.495
			c0.006,0.004,0.461,0.396,0.426,1.047c-0.014,0.362-0.215,0.686-0.566,0.909c-0.303,0.193-0.615,0.291-0.934,0.291
			c-0.477-0.001-0.803-0.224-0.824-0.239c-0.025-0.02-2.463-2.256-3.361-3.007c-0.143-0.119-0.281-0.225-0.422-0.225
			c-0.074,0-0.141,0.032-0.186,0.088c-0.141,0.174,0.016,0.415,0.203,0.574l2.848,2.864c0.004,0.003,0.355,0.333,0.395,0.771
			c0.021,0.474-0.205,0.872-0.678,1.18c-0.336,0.222-0.678,0.334-1.008,0.334c-0.441,0-0.746-0.2-0.812-0.247l-0.41-0.403
			c-0.746-0.734-1.518-1.494-2.082-1.966c-0.139-0.114-0.285-0.219-0.424-0.219c-0.07,0-0.133,0.024-0.18,0.077
			c-0.062,0.07-0.107,0.2,0.053,0.413c0.064,0.087,0.143,0.159,0.143,0.159l2.078,2.336c0.02,0.02,0.428,0.509,0.047,0.996
			l-0.072,0.093c-0.062,0.069-0.131,0.134-0.193,0.187c-0.357,0.292-0.83,0.321-1.016,0.321c-0.102,0-0.197-0.007-0.283-0.022
			c-0.203-0.037-0.344-0.094-0.41-0.172l-0.025-0.025c-0.113-0.118-1.16-1.19-2.027-1.911c-0.113-0.096-0.258-0.216-0.404-0.216
			c-0.074,0-0.139,0.028-0.188,0.083c-0.172,0.187,0.086,0.47,0.195,0.571l1.773,1.956c-0.002,0.017-0.023,0.057-0.066,0.119
			c-0.062,0.087-0.281,0.303-0.922,0.384c-0.078,0.01-0.16,0.014-0.234,0.014c-0.664,0-1.373-0.323-1.738-0.514
			c0.168-0.352,0.254-0.738,0.254-1.124c0-1.459-1.188-2.647-2.646-2.648c-0.029,0-0.062,0-0.094,0.001
			c0.047-0.666-0.045-1.928-1.342-2.483c-0.373-0.161-0.746-0.245-1.107-0.245c-0.283,0-0.555,0.05-0.811,0.147
			c-0.268-0.521-0.715-0.901-1.297-1.099c-0.318-0.111-0.639-0.168-0.947-0.168c-0.537,0-1.037,0.16-1.479,0.474
			c-0.424-0.526-1.064-0.84-1.74-0.84c-0.592,0-1.158,0.236-1.578,0.652c-0.553-0.422-2.742-1.812-8.602-3.142
			c-0.285-0.065-0.936-0.251-1.334-0.368c-0.066,0.317-0.115,0.638-0.148,0.961c0,0,1.08,0.258,1.291,0.307
			c5.986,1.329,7.967,2.712,8.301,2.973c-0.115,0.273-0.176,0.566-0.176,0.86c0,1.236,1.006,2.244,2.244,2.245
			c0.139,0,0.275-0.012,0.412-0.037c0.186,0.91,0.781,1.6,1.691,1.954c0.266,0.101,0.535,0.155,0.801,0.155
			c0.17,0,0.342-0.021,0.51-0.064c0.168,0.427,0.545,0.961,1.393,1.303c0.295,0.119,0.592,0.181,0.881,0.181
			c0.234,0,0.465-0.042,0.686-0.121c0.404,0.987,1.371,1.64,2.445,1.64c0.711,0,1.396-0.29,1.896-0.803
			c0.424,0.237,1.328,0.667,2.238,0.667c0.119,0,0.229-0.007,0.336-0.02c0.906-0.115,1.326-0.468,1.52-0.744
			c0.035-0.048,0.066-0.099,0.094-0.153c0.215,0.06,0.449,0.113,0.721,0.113c0.492,0,0.965-0.17,1.445-0.516
			c0.471-0.339,0.805-0.827,0.854-1.242c0.002-0.006,0.004-0.011,0.004-0.02c0.158,0.034,0.32,0.051,0.484,0.051
			c0.506,0,1.004-0.158,1.486-0.471c0.922-0.607,1.08-1.395,1.066-1.911c0.162,0.033,0.328,0.051,0.488,0.051
			c0.48,0,0.949-0.144,1.395-0.429c0.568-0.365,0.916-0.925,0.967-1.576c0.033-0.443-0.074-0.888-0.307-1.273
			c1.545-0.666,5.074-1.954,9.234-2.891c-0.025-0.322-0.072-0.64-0.133-0.958C211.056,59.859,207.304,61.483,206.363,61.901z
			 M192.296,70.033c-0.979,0-1.77-0.761-1.807-1.727c0-0.084-0.012-0.304-0.199-0.304c-0.076,0-0.141,0.045-0.217,0.115
			c-0.217,0.199-0.49,0.4-0.891,0.4c-0.178,0-0.375-0.041-0.586-0.126c-1.029-0.417-1.043-1.128-1-1.412
			c0.01-0.077,0.014-0.156-0.037-0.217l-0.064-0.057h-0.064c-0.053,0-0.105,0.02-0.178,0.073c-0.299,0.209-0.584,0.311-0.875,0.311
			c-0.162,0-0.326-0.031-0.49-0.096c-1.355-0.529-1.25-1.81-1.184-2.197c0.01-0.078-0.01-0.138-0.059-0.178l-0.098-0.079
			l-0.088,0.086c-0.266,0.255-0.613,0.395-0.975,0.395c-0.779,0-1.414-0.633-1.412-1.412c0-0.779,0.635-1.41,1.412-1.409
			c0.703,0,1.303,0.529,1.391,1.231l0.051,0.379l0.209-0.321c0.023-0.038,0.594-0.898,1.639-0.897c0.199,0,0.408,0.032,0.615,0.096
			c0.834,0.255,0.977,1.013,0.998,1.329c0.016,0.185,0.145,0.194,0.17,0.194c0.074,0,0.127-0.046,0.164-0.086
			c0.158-0.164,0.5-0.438,1.039-0.438c0.248,0.001,0.508,0.059,0.779,0.176c1.328,0.569,0.725,2.257,0.719,2.274
			c-0.113,0.279-0.119,0.404-0.012,0.474l0.053,0.026h0.039c0.061,0,0.135-0.026,0.256-0.069c0.182-0.06,0.453-0.156,0.711-0.156
			l0,0c1,0.012,1.812,0.825,1.812,1.812C194.107,69.222,193.296,70.033,192.296,70.033z"/>
	</g>
	<g>
		<path fill="#060E9F" d="M229.134,86.325c-0.834-1.046-2.1-1.568-3.799-1.568c-1.697,0-2.963,0.521-3.797,1.568
			c-0.838,1.042-1.256,2.279-1.256,3.704c0,1.45,0.418,2.688,1.256,3.72c0.834,1.029,2.1,1.544,3.797,1.544s2.965-0.515,3.799-1.544
			c0.836-1.031,1.254-2.27,1.254-3.72C230.388,88.604,229.968,87.368,229.134,86.325z M227.066,92.319
			c-0.404,0.537-0.984,0.805-1.742,0.805c-0.754,0-1.336-0.27-1.746-0.805c-0.406-0.536-0.609-1.302-0.609-2.292
			c0-0.988,0.205-1.751,0.609-2.287c0.41-0.534,0.992-0.801,1.746-0.801c0.758,0,1.338,0.266,1.742,0.801
			c0.404,0.535,0.605,1.297,0.605,2.287C227.673,91.019,227.47,91.784,227.066,92.319z"/>
		<path fill="#060E9F" d="M207.812,85.451c-0.844-0.428-1.814-0.646-2.902-0.646c-1.676,0-2.857,0.437-3.545,1.309
			c-0.432,0.56-0.68,1.271-0.732,2.139h2.502c0.061-0.382,0.184-0.687,0.371-0.91c0.256-0.305,0.695-0.455,1.314-0.455
			c0.555,0,0.975,0.075,1.26,0.233c0.287,0.152,0.43,0.435,0.43,0.841c0,0.333-0.184,0.578-0.557,0.737
			c-0.211,0.092-0.555,0.167-1.041,0.226l-0.887,0.109c-1.006,0.128-1.773,0.341-2.293,0.639c-0.945,0.546-1.422,1.429-1.422,2.647
			c0,0.94,0.295,1.667,0.883,2.177c0.59,0.512,1.334,0.728,2.238,0.771c5.66,0.252,5.594-2.982,5.646-3.654V87.89
			C209.082,86.695,208.66,85.882,207.812,85.451z M206.5,91.101c-0.02,0.866-0.266,1.464-0.744,1.791
			c-0.477,0.329-1,0.492-1.564,0.492c-0.355,0-0.658-0.101-0.91-0.296c-0.25-0.198-0.373-0.518-0.373-0.961
			c0-0.498,0.203-0.863,0.611-1.1c0.242-0.139,0.641-0.258,1.193-0.354l0.59-0.111c0.293-0.056,0.527-0.115,0.695-0.177
			c0.168-0.062,0.336-0.145,0.502-0.25V91.101L206.5,91.101z"/>
		<path fill="#060E9F" d="M194.91,87.023c0.646,0,1.125,0.2,1.43,0.598c0.211,0.295,0.344,0.629,0.393,0.999h2.793
			c-0.15-1.408-0.646-2.391-1.477-2.948c-0.834-0.554-1.904-0.834-3.211-0.834c-1.539,0-2.744,0.474-3.615,1.414
			c-0.875,0.945-1.312,2.263-1.312,3.959c0,1.501,0.395,2.725,1.186,3.669c0.791,0.943,2.025,1.414,3.703,1.414
			c1.68,0,2.945-0.566,3.799-1.695c0.535-0.702,0.836-1.446,0.9-2.232h-2.783c-0.061,0.521-0.217,0.943-0.49,1.27
			c-0.266,0.325-0.719,0.49-1.357,0.49c-0.902,0-1.514-0.412-1.842-1.234c-0.176-0.441-0.268-1.022-0.268-1.746
			c0-0.758,0.092-1.366,0.268-1.826C193.361,87.457,193.99,87.023,194.91,87.023z"/>
		<path fill="#060E9F" d="M189.16,84.838c-5.734,0-5.396,5.077-5.396,5.077v5.157h2.604v-4.837c0-0.792,0.102-1.379,0.299-1.76
			c0.355-0.677,1.055-1.016,2.096-1.016c0.076,0,0.18,0.004,0.307,0.011c0.129,0.006,0.271,0.017,0.438,0.038V84.86
			c-0.117-0.006-0.191-0.01-0.223-0.015C189.248,84.84,189.207,84.838,189.16,84.838z"/>
		<path fill="#060E9F" d="M179.601,92.377c-0.107,0.155-0.227,0.29-0.355,0.393c-0.369,0.303-0.867,0.396-1.453,0.396
			c-0.559,0-0.992-0.085-1.387-0.333c-0.648-0.398-1.016-1.075-1.053-2.066h7.199c0.01-0.852-0.018-1.505-0.086-1.961
			c-0.121-0.773-0.383-1.457-0.787-2.043c-0.449-0.666-1.02-1.153-1.709-1.463c-0.686-0.307-1.463-0.461-2.324-0.461
			c-1.449,0-2.625,0.458-3.535,1.369c-0.904,0.915-1.361,2.228-1.361,3.94c0,1.828,0.504,3.146,1.512,3.958
			c1.002,0.81,2.166,1.216,3.48,1.216c1.592,0,2.832-0.481,3.719-1.443c0.477-0.505,0.773-1.004,0.9-1.499h-2.762v-0.003H179.601z
			 M176.103,87.532c0.365-0.376,0.879-0.565,1.543-0.565c0.609,0,1.119,0.177,1.533,0.532c0.41,0.354,0.643,0.877,0.688,1.56h-4.453
			C175.507,88.418,175.74,87.911,176.103,87.532z"/>
		<g>
			<path fill="#060E9F" d="M171.703,95.07h-2.375v-5.985c0-0.547-0.182-1.848-1.75-1.848c-1.043,0-1.803,0.754-1.803,1.848v5.985
				h-2.379v-5.985c0-0.547-0.164-1.848-1.727-1.848c-1.066,0-1.803,0.754-1.803,1.848v5.985h-2.381v-5.927
				c0-2.471,1.641-4.341,4.184-4.341c1.26,0,2.285,0.531,2.953,1.38c0.703-0.849,1.746-1.38,2.957-1.38
				c2.592,0,4.123,1.794,4.123,4.341V95.07L171.703,95.07z"/>
		</g>
		<path fill="#060E9F" d="M219.509,81.713c0,0-2.619-0.28-2.619,1.825l-0.002,2.787c-0.293-0.465-0.67-0.829-1.133-1.092
			c-0.465-0.262-0.998-0.396-1.6-0.396c-1.299,0-2.334,0.484-3.113,1.451c-0.777,0.969-1.164,2.363-1.164,4.048
			c0,1.464,0.395,2.664,1.184,3.598c0.789,0.931,2.336,1.341,3.709,1.341c4.791,0,4.734-4.108,4.734-4.108L219.509,81.713z
			 M216.39,92.343c-0.381,0.543-0.938,0.815-1.67,0.815c-0.729,0-1.275-0.275-1.635-0.82c-0.359-0.549-0.539-1.346-0.539-2.257
			c0-0.848,0.176-1.556,0.529-2.127c0.354-0.57,0.906-0.857,1.666-0.857c0.494,0,0.928,0.157,1.307,0.471
			c0.609,0.521,0.916,1.455,0.916,2.662C216.96,91.092,216.769,91.798,216.39,92.343z"/>
	</g>
	<g>
		<path fill="#009EE2" d="M176.425,110.801c0,0.354-0.127,0.654-0.385,0.907c-0.256,0.252-0.562,0.376-0.922,0.376h-1.301v-9.054
			c0-1.762,0.596-2.865,1.57-3.611c0.646-0.492,1.607-0.963,3.41-0.963c1.219,0,2.643,0.473,3.412,1.412
			c0.865,1.055,1.225,2.232,1.225,3.768c0,1.59-0.383,2.871-1.146,3.857c-0.77,0.959-1.752,1.436-2.953,1.436
			c-0.637,0-1.199-0.113-1.686-0.338c-0.51-0.254-0.92-0.645-1.225-1.175v3.387V110.801L176.425,110.801z M180.792,103.749
			c0-0.984-0.193-1.739-0.578-2.268c-0.383-0.527-0.93-0.794-1.646-0.794c-0.689,0-1.227,0.267-1.611,0.794
			c-0.355,0.479-0.531,1.236-0.531,2.268c0,0.96,0.191,1.676,0.572,2.154c0.383,0.529,0.932,0.796,1.648,0.796
			c0.664,0,1.188-0.266,1.568-0.796C180.599,105.375,180.792,104.66,180.792,103.749"/>
		<path fill="#009EE2" d="M200.701,108.093v-0.642c-0.451,0.707-1.059,1.144-1.824,1.322c-0.766,0.174-1.523,0.112-2.275-0.19
			c-0.754-0.299-1.398-0.862-1.939-1.681c-0.537-0.821-0.811-1.896-0.811-3.232c0-1.558,0.359-2.825,1.072-3.794
			c0.719-0.969,1.865-1.412,3.443-1.454c1.559-0.042,2.463,0.311,3.352,0.981c0.967,0.736,1.543,1.866,1.543,3.627v5.328
			c0.002,1.696-1.178,4.838-4.893,4.571c-2.299-0.166-3.576-1.109-4.289-3.248h2.746c0.201,0.352,0.506,0.623,0.924,0.811
			c0.412,0.189,0.828,0.238,1.236,0.151c0.412-0.089,0.791-0.334,1.131-0.736C200.458,109.505,200.65,108.9,200.701,108.093
			 M196.414,103.751c0,1.737,0.502,2.7,1.506,2.889c1,0.186,1.746-0.047,2.219-0.7c0.229-0.275,0.387-0.712,0.49-1.302
			c0.1-0.594,0.107-1.178,0.02-1.756c-0.086-0.582-0.295-1.097-0.623-1.55c-0.324-0.452-0.801-0.681-1.428-0.681
			c-0.854,0-1.43,0.316-1.73,0.945C196.562,102.226,196.414,102.944,196.414,103.751"/>
		<path fill="#009EE2" d="M191.625,99.141c-0.848-0.427-1.82-0.646-2.91-0.646c-1.678,0-2.861,0.439-3.551,1.312
			c-0.434,0.562-0.678,1.272-0.732,2.14h2.508c0.062-0.382,0.184-0.687,0.369-0.909c0.258-0.303,0.697-0.456,1.318-0.456
			c0.557,0,0.977,0.076,1.262,0.232c0.287,0.155,0.43,0.435,0.43,0.844c0,0.333-0.186,0.579-0.561,0.737
			c-0.207,0.093-0.551,0.167-1.039,0.229l-0.889,0.107c-1.01,0.129-1.777,0.342-2.295,0.64c-0.949,0.548-1.422,1.433-1.422,2.65
			c0,0.942,0.295,1.667,0.885,2.182c0.588,0.513,1.336,0.729,2.24,0.771c5.666,0.253,5.602-2.988,5.654-3.661v-3.729
			C192.894,100.387,192.472,99.574,191.625,99.141 M190.308,104.802c-0.02,0.869-0.266,1.465-0.744,1.792
			c-0.479,0.33-1,0.493-1.566,0.493c-0.357,0-0.662-0.1-0.914-0.296c-0.25-0.198-0.373-0.519-0.373-0.961
			c0-0.496,0.205-0.865,0.613-1.101c0.24-0.14,0.639-0.259,1.193-0.354l0.592-0.109c0.293-0.057,0.527-0.116,0.695-0.182
			c0.17-0.06,0.336-0.143,0.502-0.248v0.966H190.308z"/>
		<path fill="#009EE2" d="M213.119,99.963c-0.836-1.046-2.105-1.57-3.809-1.57c-1.697,0-2.967,0.524-3.803,1.57
			c-0.838,1.046-1.254,2.284-1.254,3.709c0,1.453,0.416,2.693,1.254,3.728c0.836,1.029,2.104,1.547,3.803,1.547
			c1.703,0,2.973-0.517,3.809-1.547c0.838-1.034,1.252-2.274,1.252-3.728C214.371,102.246,213.957,101.009,213.119,99.963
			 M211.048,105.966c-0.406,0.539-0.986,0.808-1.742,0.808s-1.342-0.269-1.75-0.808c-0.41-0.536-0.611-1.301-0.611-2.294
			c0-0.989,0.205-1.753,0.611-2.288c0.408-0.536,0.994-0.804,1.75-0.804s1.336,0.267,1.742,0.804
			c0.406,0.534,0.609,1.299,0.609,2.288C211.656,104.667,211.451,105.431,211.048,105.966"/>
	</g>
</g>
<path fill="#3A3A3C" d="M125.458,78.17c-2.019-0.88-3.974-1.955-5.836-3.136c-0.884-0.562-1.922-1.472-2.139-2.4
	c-1.509-6.486-0.495-8.61,5.273-11.829c0.643-0.358,1.285-0.724,1.92-1.098c2.124-1.248,4.405-2.068,3.373-5.604
	c-0.956-3.271-2.472-4.655-5.866-4.301c-2.186,0.229-4.429,0.132-6.625-0.058c-1.049-0.091-2.396-0.439-3.017-1.172
	c-4.41-5.188-4.461-7.405-0.668-13.247c0.4-0.618,0.818-1.228,1.182-1.868c1.12-1.973,2.772-3.607,0.262-6.12
	c-2.359-2.363-4.291-3.123-7.188-1.27c-1.978,1.265-4.122,2.295-6.266,3.265c-0.823,0.373-1.995,0.654-2.766,0.354
	c-6.396-2.491-7.662-4.745-6.91-11.805c0.063-0.586,0.162-1.171,0.182-1.76c0.069-2.265,0.829-4.581-2.5-5.668
	c-3.059-1-5.271-1.101-7.014,2.035c-1.141,2.05-2.576,3.964-4.078,5.771c-0.651,0.782-1.78,1.548-2.744,1.625
	c-6.998,0.55-8.344-0.343-11.007-6.778c-0.337-0.816-0.703-1.624-1.045-2.438c-0.872-2.063-1.562-4.081-4.67-3.405
	c-2.764,0.598-5.142,1.059-5.139,4.662c0.001,1.899-0.625,3.792-0.676,5.697c-0.073,2.845-1.444,4.064-3.989,5.445
	c-4.509,2.447-7.823,1.997-10.92-1.897c-0.449-0.564-1.142-0.929-1.695-1.416c-1.947-1.714-3.619-3.026-6.458-0.917
	c-2.642,1.962-3.156,3.838-1.942,6.65c0.933,2.162,1.815,4.361,2.482,6.616c0.287,0.973,0.354,2.355-0.131,3.156
	c-3.799,6.253-5.017,6.714-12.217,5.19c-0.721-0.152-1.452-0.265-2.165-0.447c-2.425-0.616-4.346-0.785-5.775,2.163
	c-1.396,2.879-1.318,4.847,1.241,6.808c1.75,1.34,3.53,2.764,4.866,4.482c0.911,1.169,1.462,2.909,1.503,4.412
	c0.155,5.695-2.662,8.87-8.484,9.179c-0.579,0.03-1.143,0.286-1.713,0.432c-2.378,0.61-4.221,1.282-4.093,4.585
	c0.124,3.201,1.094,4.908,4.273,5.434c1.882,0.311,3.687,1.118,5.57,1.37c2.68,0.36,3.582,1.82,4.587,4.305
	c1.995,4.933,1.029,8.259-3.35,11.081c-1.685,1.085-2.943,2.831-4.302,4.185c2.783,7.039,2.784,7.049,9.549,5.612
	c1.729-0.367,3.418-0.999,5.161-1.204c0.985-0.118,2.33,0.06,3.026,0.663c6.102,5.3,6.069,5.337,3.481,12.802
	c-0.194,0.555-0.38,1.115-0.58,1.668c-0.814,2.258-1.581,4.19,1.206,6.084c2.838,1.929,4.904,1.948,7.27-0.445
	c1.653-1.673,3.475-3.196,5.328-4.65c0.716-0.564,1.774-1.156,2.591-1.049c6.648,0.859,8.587,2.855,9.508,9.437
	c0.083,0.585,0.16,1.17,0.229,1.755c0.328,2.7,0.64,5.01,4.38,5.369c3.391,0.327,4.855-0.977,5.779-3.848
	c0.541-1.678,1.662-3.229,1.917-4.93c0.873-5.8,5.828-3.833,9.076-4.636c1.25-0.307,3.358,1.438,4.568,2.725
	c2.002,2.127,3.591,4.648,5.474,7.163c7.274-2.183,7.284-2.183,6.676-9.116c-0.145-1.614-0.478-3.216-0.534-4.832
	c-0.031-0.933,0.009-2.138,0.544-2.774c3.901-4.669,7.455-5.293,13.115-2.518c0.529,0.258,1.046,0.545,1.59,0.767
	c2.32,0.963,4.313,2.777,6.868-0.36c2.276-2.791,2.099-4.77,0.118-7.298c-1.362-1.734-2.619-3.575-3.714-5.488
	c-0.513-0.894-0.983-2.207-0.713-3.097c2.105-6.912,3.386-7.806,10.686-8.046c0.588-0.02,1.177-0.047,1.769-0.063
	c2.498-0.067,4.729,0.163,5.519-3.446C129.438,81.192,128.455,79.474,125.458,78.17z"/>
<g>
	<path fill="#FFFFFF" d="M37.167,75.229c1.104,0,2.138-0.493,3.123-1.126l0.61,0.986c-0.962,0.752-2.302,1.362-3.78,1.362
		c-3.053,0-5.025-2.185-5.025-6.036c0-2.607,0.798-6.128,4.602-6.128c0.939,0,2.089,0.094,3.147,0.187v1.221
		c-1.222-0.094-2.512-0.187-3.312-0.187c-2.395,0-3.1,2.3-3.1,4.837C33.433,73.516,34.816,75.229,37.167,75.229z"/>
	<path fill="#FFFFFF" d="M42.896,59.168h1.291v13.69c0,1.244,0.33,2.137,0.94,2.793l-0.799,0.775
		c-1.173-0.845-1.432-2.278-1.432-3.569V59.168z"/>
	<path fill="#FFFFFF" d="M48.742,64.358c1.174,0.846,1.433,2.277,1.433,3.57v8.29h-1.292v-8.29c0-1.244-0.328-2.137-0.94-2.794
		L48.742,64.358z M49.33,59.568c0.61,0,1.104,0.492,1.104,1.103c0,0.588-0.494,1.081-1.104,1.081c-0.588,0-1.08-0.493-1.08-1.081
		C48.25,60.061,48.742,59.568,49.33,59.568z"/>
	<path fill="#FFFFFF" d="M55.012,71.52c0.283,2.419,1.503,3.709,3.945,3.709c1.315,0,2.489-0.493,3.663-1.126l0.61,0.986
		c-1.104,0.752-2.583,1.362-4.274,1.362c-3.522,0-5.353-2.185-5.353-6.036c0-3.24,2.02-6.128,5.095-6.128
		c2.325,0,4.251,1.36,4.251,3.568c0,2.771-2.56,3.664-5.166,3.664L55.012,71.52L55.012,71.52z M54.941,70.299h2.841
		c3.218,0,3.828-1.338,3.828-2.441c0-1.457-1.198-2.418-2.913-2.418C56.419,65.439,54.963,67.88,54.941,70.299z"/>
	<path fill="#FFFFFF" d="M74.712,76.217c-0.493-0.94-0.61-2.231-0.61-3.148c0-1.479,0.187-2.558,0.187-4.741
		c0-1.927-0.869-2.818-2.652-2.818c-1.668,0-2.748,0.891-3.828,2.371v0.047v8.29h-1.291v-8.289c0-1.244-0.33-2.136-0.94-2.794
		l0.798-0.776c0.751,0.54,1.126,1.338,1.292,2.16c1.033-1.503,2.396-2.23,3.969-2.23c2.724,0,3.944,1.386,3.944,3.78
		c0,2.23-0.188,3.616-0.188,5.142c0,1.033,0.141,1.926,0.563,3.006H74.712L74.712,76.217z"/>
	<path fill="#FFFFFF" d="M79.479,64.382c0-1.244-0.329-2.139-0.939-2.795l0.798-0.774c1.174,0.843,1.433,2.277,1.433,3.569v0.141
		h3.709v1.29h-3.709v7.045c0,1.831,0.798,2.371,1.762,2.371c1.15,0,2.559-0.798,3.1-1.126l0.61,0.986
		c-0.492,0.399-2.324,1.362-3.943,1.362c-1.479,0-2.818-0.822-2.818-3.592L79.479,64.382L79.479,64.382z"/>
	<path fill="#FFFFFF" d="M89.412,71.52c0.283,2.419,1.503,3.709,3.944,3.709c1.315,0,2.489-0.493,3.663-1.126l0.61,0.986
		c-1.104,0.752-2.583,1.362-4.274,1.362c-3.522,0-5.354-2.185-5.354-6.036c0-3.24,2.02-6.128,5.096-6.128
		c2.324,0,4.25,1.36,4.25,3.568c0,2.771-2.56,3.664-5.166,3.664L89.412,71.52L89.412,71.52z M89.341,70.299h2.842
		c3.218,0,3.827-1.338,3.827-2.441c0-1.457-1.198-2.418-2.912-2.418C90.821,65.439,89.366,67.88,89.341,70.299z"/>
</g>
<path fill="#F5812A" d="M184.365,177.244c-2.41-1.257-4.727-2.748-6.916-4.365c-1.041-0.767-2.242-1.978-2.428-3.139
	c-1.301-8.113,0.131-10.642,7.51-14.107c0.822-0.387,1.645-0.779,2.459-1.186c2.721-1.354,5.6-2.17,4.633-6.609
	c-0.895-4.109-2.641-5.943-6.85-5.801c-2.711,0.094-5.463-0.219-8.152-0.643c-1.279-0.202-2.91-0.746-3.611-1.703
	c-4.982-6.766-4.855-9.5,0.318-16.368c0.545-0.726,1.113-1.439,1.613-2.198c1.551-2.333,3.723-4.202,0.852-7.512
	c-2.703-3.111-5.016-4.215-8.744-2.182c-2.541,1.388-5.271,2.469-7.992,3.479c-1.043,0.388-2.512,0.634-3.434,0.199
	c-7.66-3.619-9.025-6.5-7.492-15.126c0.127-0.718,0.3-1.43,0.374-2.151c0.282-2.785,1.417-5.569-2.588-7.198
	c-3.68-1.493-6.396-1.81-8.811,1.903c-1.58,2.425-3.512,4.657-5.517,6.751c-0.87,0.907-2.322,1.754-3.517,1.765
	c-8.663,0.076-10.243-1.14-12.966-9.292c-0.348-1.034-0.726-2.059-1.08-3.091c-0.894-2.615-1.57-5.158-5.456-4.596
	c-3.453,0.499-6.42,0.863-6.728,5.298c-0.16,2.337-1.095,4.615-1.321,6.954c-0.336,3.494-2.129,4.88-5.379,6.361
	c-5.762,2.622-9.801,1.786-13.28-3.276c-0.504-0.732-1.325-1.241-1.965-1.888c-2.25-2.276-4.195-4.036-7.872-1.683
	c-3.421,2.187-4.216,4.453-2.963,8.019c0.962,2.742,1.859,5.527,2.486,8.359c0.269,1.223,0.235,2.931-0.432,3.873
	c-5.216,7.371-6.755,7.835-15.487,5.338c-0.875-0.25-1.765-0.452-2.626-0.738c-2.934-0.965-5.284-1.34-7.297,2.167
	c-1.966,3.425-2.041,5.851,0.942,8.485c2.039,1.804,4.106,3.705,5.604,5.939c1.019,1.518,1.549,3.707,1.471,5.559
	c-0.3,7.023-4.042,10.691-11.234,10.568c-0.713-0.012-1.43,0.256-2.145,0.387c-2.982,0.551-5.306,1.221-5.435,5.297
	c-0.122,3.951,0.924,6.139,4.793,7.057c2.289,0.542,4.442,1.693,6.738,2.166c3.27,0.674,4.252,2.549,5.276,5.696
	c2.031,6.241,0.556,10.257-5.079,13.353c-2.166,1.188-3.864,3.233-5.655,4.783c2.82,8.898,2.822,8.918,11.273,7.73
	c2.16-0.303,4.293-0.938,6.457-1.043c1.223-0.058,2.863,0.275,3.669,1.08c7.056,7.049,7.011,7.092,3.182,16.059
	c-0.287,0.67-0.564,1.341-0.858,2.006c-1.197,2.711-2.307,5.02,0.96,7.592c3.327,2.619,5.87,2.82,8.987,0.077
	c2.18-1.915,4.554-3.633,6.959-5.267c0.931-0.631,2.285-1.268,3.28-1.07c8.109,1.634,10.327,4.257,10.895,12.438
	c0.051,0.728,0.094,1.453,0.132,2.182c0.169,3.354,0.354,6.222,4.93,6.988c4.143,0.692,6.06-0.785,7.444-4.239
	c0.81-2.021,2.324-3.834,2.784-5.905c1.576-7.064,7.507-4.217,11.574-4.926c1.564-0.27,4.011,2.061,5.389,3.747
	c2.281,2.795,4.022,6.03,6.124,9.288c9.142-2.062,9.153-2.062,9.001-10.647c-0.037-1.999-0.311-4.001-0.24-5.991
	c0.043-1.154,0.194-2.629,0.908-3.371c5.205-5.412,9.635-5.871,16.361-1.972c0.627,0.363,1.24,0.761,1.895,1.085
	c2.77,1.387,5.066,3.788,8.482,0.146c3.043-3.239,2.996-5.694,0.775-8.973c-1.529-2.257-2.918-4.629-4.102-7.078
	c-0.557-1.145-1.021-2.801-0.611-3.871c3.186-8.33,4.842-9.316,13.848-8.985c0.727,0.022,1.455,0.045,2.184,0.073
	c3.078,0.132,5.807,0.607,7.09-3.768C189,181.308,187.939,179.107,184.365,177.244z"/>
<g>
	<path fill="#1D1D1B" d="M104.524,125.113v3.252l3.653,2.191l1.788-2.18L104.524,125.113z M118.418,125.113l-5.431,3.258
		l1.742,2.207l3.689-2.216V125.113L118.418,125.113z"/>
	<path fill="none" stroke="#EECC00" stroke-width="4" d="M115.289,133.042"/>
	<polygon fill="#1D1D1B" points="86.483,167.796 83.45,166.003 83.443,163.837 111.509,129.597 139.211,163.791 139.211,166.003 
		136.169,167.796 122.092,160.009 111.247,167.477 100.386,160.007 	"/>
	<polygon fill="#EECC00" points="100.365,160.009 107.75,165.128 114.656,165.128 122.092,160.009 	"/>
	<polygon fill="#EECC00" points="103.647,150.136 101.558,154.994 120.31,154.944 118.554,150.136 	"/>
	<polygon fill="#EECC00" points="107.021,140.83 105.401,145.348 116.87,145.341 115.453,140.83 	"/>
	<path fill="none" stroke="#1D1D1B" stroke-width="4" d="M107.169,133.148"/>
	<g>
		<path d="M147.807,186.201c-0.052,0.246-0.083,0.492-0.153,0.731c-0.367,1.262-1.217,2.075-2.428,2.509
			c-1.786,0.637-3.543,0.482-5.262-0.285c-0.803-0.357-1.48-0.902-2.167-1.46c0.598-0.897,1.192-1.79,1.792-2.688
			c0.343,0.224,0.675,0.443,1.008,0.656c0.585,0.377,1.21,0.652,1.903,0.76c0.454,0.064,0.907,0.082,1.353-0.051
			c0.506-0.149,0.654-0.748,0.25-1.092c-0.217-0.185-0.478-0.328-0.741-0.445c-0.537-0.233-1.089-0.428-1.629-0.653
			c-0.739-0.312-1.426-0.705-1.972-1.312c-1.561-1.732-1.493-5.25,1.869-6.269c0.628-0.188,1.275-0.226,1.927-0.188
			c1.01,0.059,2.02,0.131,3.03,0.201c0.056,0.004,0.111,0.014,0.174,0.024c0,1.114,0,2.219,0,3.344
			c-0.37-0.026-0.731-0.062-1.092-0.081c-0.909-0.048-1.818-0.089-2.726-0.134c-0.067-0.003-0.137,0-0.205,0.011
			c-0.178,0.021-0.362,0.062-0.434,0.251c-0.074,0.194-0.028,0.396,0.112,0.538c0.128,0.133,0.281,0.258,0.445,0.334
			c0.512,0.23,1.034,0.441,1.554,0.646c0.615,0.246,1.215,0.515,1.753,0.906c0.945,0.687,1.479,1.614,1.606,2.774
			c0.003,0.038,0.021,0.075,0.03,0.112C147.807,185.63,147.807,185.916,147.807,186.201z"/>
		<path d="M74.911,178.246c0.178-0.168,0.359-0.33,0.533-0.502c0.508-0.488,1.014-0.98,1.521-1.473
			c0.045-0.043,0.09-0.083,0.116-0.105c1.531,0.826,2.363,2.098,2.514,3.81c0.029,0.33,0.051,0.657,0.051,0.987
			c0.003,4.604,0.002,9.207,0.003,13.811c0,0.081,0.006,0.16,0.009,0.24c-1.147,0-2.297,0-3.448,0
			c0.003-0.062,0.008-0.126,0.008-0.188c0-4.623,0-9.248,0-13.871c0-0.14,0-0.285-0.009-0.427c-0.037-0.478-0.128-0.94-0.442-1.317
			c-0.267-0.321-0.567-0.619-0.854-0.928C74.911,178.268,74.911,178.253,74.911,178.246z"/>
		<path d="M77.711,171.175c0.125,0.033,0.254,0.062,0.377,0.101c1.017,0.313,1.626,1.308,1.465,2.38
			c-0.149,0.994-1.051,1.752-2.087,1.758c-1.042,0.008-1.936-0.75-2.104-1.781c-0.183-1.133,0.595-2.227,1.725-2.426
			c0.038-0.006,0.076-0.021,0.111-0.033C77.371,171.175,77.541,171.175,77.711,171.175z"/>
		<path d="M102.895,171.708c1.144,0,2.273,0,3.423,0c0,0.854,0,1.703,0,2.549c0,0.845,0,1.691,0,2.539
			c0.324-0.092,0.631-0.196,0.943-0.262c2.646-0.561,5.109,0.698,6.216,3.17c0.563,1.26,0.75,2.58,0.663,3.945
			c-0.082,1.255-0.413,2.434-1.109,3.484c-1.147,1.738-2.781,2.629-4.854,2.682c-1.476,0.038-2.944-0.082-4.382-0.441
			c-0.271-0.067-0.535-0.154-0.8-0.244c-0.042-0.016-0.073-0.076-0.097-0.127c-0.013-0.024-0.002-0.064-0.002-0.102
			c0-5.66,0-11.322,0-16.982C102.895,171.854,102.895,171.787,102.895,171.708z M106.316,183.895c0,0.778,0,1.56-0.001,2.338
			c0,0.095-0.003,0.169,0.125,0.172c0.54,0.021,1.08,0.067,1.62,0.058c1.04-0.017,1.792-0.514,2.245-1.45
			c0.28-0.578,0.379-1.197,0.382-1.837c0.004-0.809-0.122-1.588-0.513-2.305c-0.527-0.97-1.416-1.316-2.469-0.988
			c-0.729,0.23-1.425,0.845-1.393,1.896C106.333,182.485,106.316,183.189,106.316,183.895z"/>
		<path fill="#EECC00" d="M130.003,185.305c0.267,0.603,0.71,0.932,1.304,1.067c0.916,0.209,1.801,0.076,2.644-0.299
			c0.622-0.277,1.217-0.609,1.827-0.916c0.055-0.027,0.108-0.059,0.18-0.096c0.562,0.908,1.119,1.811,1.674,2.704
			c-1.275,0.979-2.643,1.731-4.242,1.974c-1.262,0.186-2.509,0.131-3.709-0.339c-1.582-0.616-2.611-1.772-3.112-3.376
			c-0.64-2.047-0.627-4.09,0.25-6.074c0.632-1.437,1.623-2.568,3.112-3.141c1.963-0.756,3.845-0.527,5.519,0.766
			c1.168,0.905,1.646,2.168,1.514,3.633c-0.177,1.996-1.377,3.138-3.201,3.724c-0.896,0.29-1.824,0.366-2.759,0.374
			C130.679,185.307,130.355,185.305,130.003,185.305z M129.77,181.934c0.282,0,0.532,0.009,0.782-0.004
			c0.588-0.027,1.179-0.052,1.765-0.106c0.21-0.02,0.418-0.101,0.618-0.18c0.324-0.125,0.543-0.346,0.568-0.715
			c0.029-0.401-0.088-0.745-0.451-0.941c-0.688-0.373-1.393-0.423-2.063,0.026C130.317,180.466,129.994,181.158,129.77,181.934z"/>
		<path fill="#EECC00" d="M124.632,185.063c0.56,0.908,1.117,1.806,1.684,2.722c-0.393,0.264-0.772,0.528-1.165,0.776
			c-1.011,0.64-2.109,1.063-3.299,1.203c-1.559,0.187-3.067,0.024-4.431-0.835c-1.177-0.743-1.903-1.829-2.26-3.155
			c-0.555-2.056-0.514-4.083,0.425-6.032c0.677-1.41,1.704-2.5,3.21-3.008c1.967-0.663,3.822-0.396,5.446,0.941
			c0.975,0.805,1.418,1.895,1.411,3.158c-0.01,1.931-1.084,3.367-3.007,4.028c-0.957,0.33-1.948,0.433-2.951,0.44
			c-0.331,0.002-0.66,0-1.012,0c0.123,0.312,0.313,0.553,0.566,0.74c0.338,0.252,0.732,0.348,1.144,0.397
			c1.049,0.123,1.997-0.211,2.908-0.674C123.74,185.544,124.173,185.308,124.632,185.063z M118.437,181.951
			c0.738-0.021,1.448-0.021,2.157-0.062c0.388-0.02,0.774-0.11,1.125-0.295c0.182-0.096,0.344-0.219,0.404-0.418
			c0.132-0.438,0.061-0.934-0.425-1.211c-0.569-0.324-1.513-0.403-2.163,0.137C118.962,180.578,118.65,181.208,118.437,181.951z"/>
		<path d="M90.685,185.067c0.563,0.911,1.116,1.804,1.681,2.716c-0.388,0.262-0.762,0.528-1.15,0.77
			c-1.458,0.914-3.043,1.359-4.768,1.265c-1.396-0.079-2.669-0.489-3.711-1.468c-0.859-0.805-1.362-1.812-1.615-2.946
			c-0.399-1.795-0.365-3.571,0.356-5.291c0.609-1.45,1.562-2.622,3.041-3.237c2.023-0.842,3.967-0.615,5.703,0.746
			c1.108,0.869,1.559,2.084,1.478,3.485c-0.118,2.013-1.413,3.243-3.119,3.795c-0.936,0.306-1.901,0.397-2.878,0.394
			c-0.316,0-0.632,0-0.976,0c0.189,0.443,0.475,0.752,0.887,0.938c0.517,0.23,1.064,0.271,1.622,0.223
			c0.845-0.068,1.602-0.404,2.34-0.793C89.938,185.47,90.305,185.271,90.685,185.067z M84.518,181.919
			c0.015,0.002,0.031,0.015,0.046,0.013c0.7-0.013,1.398-0.011,2.097-0.044c0.397-0.018,0.786-0.116,1.144-0.309
			c0.228-0.121,0.377-0.302,0.42-0.564c0.082-0.479-0.108-0.874-0.537-1.096c-0.414-0.213-0.859-0.268-1.31-0.187
			C85.521,179.89,84.61,180.973,84.518,181.919z"/>
		<path d="M100.496,185.021c0.558,0.9,1.106,1.784,1.677,2.707c-0.443,0.322-0.861,0.68-1.325,0.954
			c-1.017,0.606-2.114,1.007-3.298,1.12c-1.076,0.101-2.078-0.09-2.913-0.832c-0.663-0.59-1.014-1.354-1.159-2.209
			c-0.082-0.487-0.122-0.984-0.124-1.477c-0.014-2.529-0.001-5.064-0.011-7.595c-0.002-0.351-0.051-0.702-0.115-1.049
			c-0.062-0.333-0.238-0.621-0.474-0.871c-0.235-0.249-0.465-0.5-0.713-0.767c0.733-0.713,1.46-1.422,2.17-2.106
			c1.479,0.815,2.339,2.033,2.5,3.726c1.164,0,2.311,0,3.47,0c0,1.148,0,2.276,0,3.424c-1.131,0-2.255,0-3.402,0
			c0,0.074,0,0.138,0,0.197c0,1.701-0.004,3.4,0.004,5.104c0,0.287,0.057,0.574,0.102,0.857c0.031,0.193,0.172,0.269,0.36,0.267
			c0.382-0.007,0.751-0.097,1.086-0.267c0.657-0.332,1.297-0.699,1.945-1.054C100.343,185.115,100.41,185.07,100.496,185.021z"/>
	</g>
</g>
<path fill="#3A3A3C" d="M291.505,179.368c-2.152-0.598-4.264-1.4-6.301-2.326c-0.965-0.438-2.139-1.205-2.486-2.105
	c-2.432-6.295-1.711-8.572,3.623-12.614c0.598-0.453,1.188-0.91,1.773-1.376c1.955-1.551,4.131-2.694,2.596-6.102
	c-1.422-3.146-3.137-4.322-6.494-3.488c-2.162,0.537-4.426,0.756-6.66,0.877c-1.062,0.059-2.463-0.104-3.191-0.752
	c-5.156-4.582-5.521-6.803-2.539-13.201c0.314-0.676,0.646-1.35,0.924-2.041c0.844-2.139,2.271-4.012-0.602-6.18
	c-2.701-2.037-4.748-2.529-7.396-0.26c-1.807,1.549-3.812,2.885-5.824,4.159c-0.773,0.491-1.912,0.938-2.727,0.747
	c-6.771-1.598-8.359-3.682-8.604-10.872c-0.02-0.6-0.004-1.199-0.066-1.792c-0.25-2.284,0.188-4.715-3.309-5.338
	c-3.209-0.57-5.447-0.362-6.754,3.034c-0.854,2.218-2.023,4.342-3.279,6.366c-0.541,0.877-1.562,1.805-2.521,2.018
	c-6.947,1.539-8.422,0.835-12.002-5.25c-0.453-0.772-0.936-1.53-1.395-2.299c-1.166-1.947-2.141-3.874-5.168-2.761
	c-2.688,0.991-5.01,1.79-4.5,5.405c0.271,1.905-0.092,3.895,0.127,5.812c0.328,2.864-0.877,4.284-3.236,6.026
	c-4.18,3.094-7.566,3.108-11.227-0.363c-0.529-0.502-1.275-0.77-1.9-1.182c-2.197-1.445-4.061-2.525-6.611-0.01
	c-2.375,2.342-2.627,4.299-1.01,6.951c1.24,2.036,2.436,4.12,3.426,6.288c0.422,0.937,0.686,2.313,0.311,3.187
	c-2.93,6.812-4.086,7.445-11.527,6.934c-0.748-0.055-1.494-0.062-2.238-0.143c-2.52-0.277-4.469-0.176-5.486,2.983
	c-0.998,3.088-0.643,5.051,2.205,6.655c1.943,1.1,3.934,2.275,5.514,3.812c1.078,1.047,1.877,2.715,2.131,4.217
	c0.961,5.694-1.42,9.276-7.219,10.408c-0.572,0.113-1.105,0.45-1.656,0.678c-2.301,0.951-4.057,1.887-3.463,5.183
	c0.574,3.194,1.789,4.774,5.057,4.853c1.932,0.043,3.857,0.6,5.783,0.588c2.742-0.021,3.852,1.319,5.213,3.672
	c2.695,4.668,2.197,8.144-1.801,11.594c-1.539,1.328-2.555,3.258-3.729,4.807c3.787,6.669,3.789,6.686,10.377,4.285
	c1.684-0.609,3.289-1.482,5.008-1.938c0.975-0.258,2.348-0.27,3.135,0.238c6.869,4.461,6.842,4.502,5.299,12.355
	c-0.117,0.586-0.225,1.174-0.35,1.759c-0.496,2.381-0.996,4.426,2.068,5.937c3.121,1.535,5.197,1.264,7.236-1.472
	c1.422-1.913,3.037-3.696,4.689-5.418c0.641-0.666,1.617-1.411,2.451-1.422c6.793-0.073,9.021,1.657,10.875,8.131
	c0.168,0.576,0.326,1.151,0.48,1.731c0.709,2.664,1.348,4.936,5.152,4.77c3.447-0.15,4.732-1.668,5.256-4.676
	c0.307-1.762,1.213-3.475,1.23-5.219c0.059-5.943,5.309-4.67,8.455-5.934c1.209-0.488,3.57,0.969,4.969,2.088
	c2.309,1.857,4.256,4.158,6.502,6.414c6.994-3.214,7.004-3.216,5.414-10.086c-0.371-1.602-0.932-3.162-1.219-4.773
	c-0.164-0.932-0.293-2.146,0.156-2.863c3.256-5.236,6.732-6.363,12.807-4.376c0.566,0.185,1.127,0.401,1.707,0.548
	c2.463,0.643,4.723,2.18,6.844-1.329c1.889-3.122,1.432-5.086-0.914-7.342c-1.611-1.549-3.131-3.22-4.498-4.981
	c-0.646-0.826-1.299-2.078-1.156-3.008c1.139-7.234,2.299-8.312,9.594-9.584c0.588-0.104,1.174-0.213,1.764-0.312
	c2.494-0.422,4.77-0.504,5.053-4.236C295.925,181.84,294.695,180.252,291.505,179.368z"/>
<g>
	<path fill="#FFFFFF" d="M191.538,188.734c-1.802,0-2.693-1.41-3.086-2.797l-2.177-7.603l1.12-0.312l2.175,7.602
		c0.312,1.16,0.932,1.969,2.009,2.114l3.065-9.717l1.079,0.353l-3.213,10.233C192.16,188.693,191.849,188.734,191.538,188.734z"/>
	<path fill="#FFFFFF" d="M198.728,184.3c0.246,2.135,1.323,3.273,3.479,3.273c1.158,0,2.193-0.437,3.231-0.995l0.539,0.868
		c-0.976,0.665-2.278,1.205-3.771,1.205c-3.108,0-4.723-1.93-4.723-5.324c0-2.855,1.78-5.406,4.494-5.406
		c2.051,0,3.748,1.2,3.748,3.148c0,2.444-2.258,3.231-4.557,3.231L198.728,184.3L198.728,184.3z M198.664,183.223h2.507
		c2.836,0,3.376-1.183,3.376-2.153c0-1.285-1.059-2.133-2.569-2.133C199.97,178.937,198.684,181.09,198.664,183.223z"/>
	<path fill="#FFFFFF" d="M216.105,188.442c-0.436-0.826-0.538-1.968-0.538-2.771c0-1.308,0.164-2.262,0.164-4.186
		c0-1.7-0.764-2.486-2.339-2.486c-1.471,0-2.423,0.786-3.376,2.094v0.041v7.312h-1.139v-7.312c0-1.1-0.293-1.883-0.828-2.464
		l0.703-0.686c0.664,0.475,0.994,1.182,1.142,1.905c0.906-1.324,2.108-1.969,3.498-1.969c2.401,0,3.48,1.222,3.48,3.336
		c0,1.967-0.164,3.189-0.164,4.534c0,0.911,0.123,1.698,0.496,2.647L216.105,188.442L216.105,188.442z"/>
	<path fill="#FFFFFF" d="M219.377,183.328c0-3.086,1.904-5.405,4.826-5.405c1.16,0,2.069,0.104,2.715,0.187v-4.724h1.139v12.075
		c0,1.099,0.271,1.884,0.808,2.464l-0.703,0.687c-0.623-0.457-0.935-1.101-1.098-1.782c-0.582,1.14-1.804,1.823-3.273,1.823
		C220.973,188.652,219.377,186.289,219.377,183.328z M226.917,184.549v-5.344c-0.498-0.062-1.555-0.207-2.691-0.207
		c-2.217,0-3.667,1.739-3.667,4.267c0,2.236,1.077,4.31,3.232,4.31C225.24,187.575,226.917,186.598,226.917,184.549z"/>
	<path fill="#FFFFFF" d="M232.386,184.3c0.249,2.135,1.326,3.273,3.482,3.273c1.157,0,2.191-0.437,3.23-0.995l0.537,0.868
		c-0.975,0.665-2.28,1.205-3.771,1.205c-3.108,0-4.723-1.93-4.723-5.324c0-2.855,1.78-5.406,4.493-5.406
		c2.052,0,3.749,1.2,3.749,3.148c0,2.444-2.26,3.231-4.559,3.231L232.386,184.3L232.386,184.3L232.386,184.3z M232.326,183.223
		h2.505c2.835,0,3.374-1.183,3.374-2.153c0-1.285-1.054-2.133-2.566-2.133C233.629,178.937,232.344,181.09,232.326,183.223z"/>
	<path fill="#FFFFFF" d="M241.706,183.328c0-3.086,1.903-5.405,4.827-5.405c1.159,0,2.068,0.104,2.712,0.187v-4.724h1.142v12.075
		c0,1.099,0.27,1.884,0.807,2.464l-0.703,0.687c-0.621-0.457-0.932-1.101-1.1-1.782c-0.579,1.14-1.802,1.823-3.271,1.823
		C243.301,188.652,241.706,186.289,241.706,183.328z M249.247,184.549v-5.344c-0.496-0.062-1.552-0.207-2.689-0.207
		c-2.218,0-3.667,1.739-3.667,4.267c0,2.236,1.077,4.31,3.231,4.31C247.568,187.575,249.247,186.598,249.247,184.549z"/>
	<path fill="#FFFFFF" d="M253.266,183.328c0-3.086,2.05-5.405,5.156-5.405c3.084,0,5.137,2.277,5.137,5.343
		c0,3.106-2.053,5.385-5.137,5.385C255.316,188.652,253.266,186.413,253.266,183.328z M254.447,183.263
		c0,2.591,1.573,4.31,3.976,4.31c2.385,0,3.96-1.78,3.96-4.35c0-2.548-1.573-4.228-3.96-4.228
		C256.02,179,254.447,180.715,254.447,183.263z"/>
	<path fill="#FFFFFF" d="M271.722,179.166c0,0-0.622-0.148-1.365-0.148c-1.123,0-2.031,0.767-2.758,2.029v0.083v7.311h-1.14v-7.311
		c0-1.1-0.29-1.886-0.828-2.465l0.702-0.685c0.643,0.477,0.977,1.12,1.141,1.823c0.727-1.265,1.656-1.885,3.023-1.885
		c0.642,0,1.225,0.163,1.225,0.163V179.166L271.722,179.166z"/>
</g>
</svg>
